<?xml version="1.0" encoding="utf-8"?>
<!-- Generator: Adobe Illustrator 16.0.0, SVG Export Plug-In . SVG Version: 6.00 Build 0)  -->
<!DOCTYPE svg PUBLIC "-//W3C//DTD SVG 1.1//EN" "http://www.w3.org/Graphics/SVG/1.1/DTD/svg11.dtd">
<svg version="1.1" id="Layer_1" xmlns="http://www.w3.org/2000/svg" xmlns:xlink="http://www.w3.org/1999/xlink" x="0px" y="0px"
	 width="2704px" height="2604.555px" viewBox="0 0 2704 2604.555" enable-background="new 0 0 2704 2604.555" xml:space="preserve">
<path fill-rule="evenodd" clip-rule="evenodd" fill="none" stroke="#1C1A00" stroke-width="5" stroke-linecap="round" stroke-miterlimit="10" d="
	M1556.908,2060.173l-0.005,34.784c-0.002,3.233-2.687,5.47-5.994,4.993s-5.987-3.486-5.984-6.72l-0.016-37.1"/>
<path fill-rule="evenodd" clip-rule="evenodd" fill="#97999C" d="M312.667,2584.666"/>
<path fill-rule="evenodd" clip-rule="evenodd" fill="none" d="M1710.431-55.856c-16.038,0-31.653-1.318-52.215-4.406
	c-55.241-8.299-159.64-33.839-258.316-70.302c-152.692-56.422-174.517-94.705-177.341-101.807
	c-6.558-16.487-3.387-32.335,0.628-52.4c6.062-30.292,13.605-67.992-14.823-111.844c-41.621-64.205-132.273-109.308-215.46-144.959
	c-39.075-16.747-63.929-43.723-60.44-65.602c3.2-20.065,36.328-51.896,114.818-58.868c24.572-2.183,47.916-3.29,69.384-3.29
	c69.102,0,114.333,9.833,165.73,36.316c40.453,20.843,72.82,51.35,105.604,82.917c25.161,24.228,51.177,49.279,83.897,73.428
	c41.847,30.884,83.715,56.929,124.206,82.115c41.259,25.665,80.23,49.907,119.657,79.096c33.512,24.81,68.001,62.479,94.092,103.688
	C1886-91.5,1828.5-78,1818-73.5c-12.374,5.303-15.906,6.277-44,12.5C1744.589-55.766,1731.336-55.856,1710.431-55.856z"/>
<path fill-rule="evenodd" clip-rule="evenodd" fill="none" d="M1789.087-328.153c-58.75,10.5-91.683,9.961-135.327,3.404
	c-124.997-18.779-426.666-109.2-459.077-190.688c-22.092-55.542,27.807-98.391-11.491-159.013
	c-38.581-59.515-132.104-103.703-202.104-133.703c-111.997-47.999-116.296-160.162,62-176
	c285.723-25.381,314.418,96.224,445.126,192.689c81.882,60.431,163.198,101.493,243.898,161.237
	c97.251,71.998,183.762,229.016,130.312,271.136C1845.498-345.752,1824.337-335.903,1789.087-328.153z"/>
<g>
	<path fill-rule="evenodd" clip-rule="evenodd" fill="#231F20" d="M1049.951,1638.701c71.656-58.123,205.284-82.349,380.958-63.392
		l-6.518,85.313c-172.462-17.664-303.674,6.676-374.44,64.078V1638.701z"/>
	<path fill-rule="evenodd" clip-rule="evenodd" fill="#231F20" d="M1049.951,1638.701c-23.658-11.92-47.37-22.472-68.864-31.684
		c-50.489-21.638-79.091-56.315-78.944-89.331l0.025,87.961c0.968,32.421,29.429,66.16,78.919,87.37
		c21.494,9.212,45.206,19.764,68.864,31.684V1638.701z"/>
	<g>
		<path fill-rule="evenodd" clip-rule="evenodd" fill="#544022" d="M902.148,1517.386l0.02,70.262
			c0.968,32.421,29.429,66.16,78.919,87.37c21.494,9.212,45.206,19.764,68.864,31.684v-68c-23.658-11.92-47.37-22.472-68.864-31.684
			C930.445,1585.314,901.825,1550.49,902.148,1517.386z"/>
	</g>
	<path fill-rule="evenodd" clip-rule="evenodd" fill="#97999C" d="M1430.909,1575.31
		c-89.571-83.784-148.642-165.538-387.822-144.292c-178.296,15.838-173.997,128.001-62,176
		c21.494,9.212,45.206,19.764,68.864,31.684C1121.606,1580.578,1255.234,1556.353,1430.909,1575.31z"/>
	<g>
		<path fill-rule="evenodd" clip-rule="evenodd" fill="#544022" d="M1049.951,1638.701v68
			c70.767-57.402,201.978-81.742,374.44-64.078l1.368,0.113l5.156-67.438l-1.37-0.132
			C1254.545,1556.482,1121.42,1580.729,1049.951,1638.701z"/>
	</g>
	<linearGradient id="SVGID_1_" gradientUnits="userSpaceOnUse" x1="1239.9214" y1="1323.542" x2="1542.7177" y2="2155.4683">
		<stop  offset="0.2579" style="stop-color:#AA8862;stop-opacity:0.99"/>
		<stop  offset="0.3627" style="stop-color:#B8965F"/>
		<stop  offset="0.7483" style="stop-color:#A27F58;stop-opacity:0.9934"/>
		<stop  offset="0.9439" style="stop-color:#957254;stop-opacity:0.99"/>
	</linearGradient>
	<path fill-rule="evenodd" clip-rule="evenodd" fill="url(#SVGID_1_)" d="M1789.087,2063.015c-58.75,10.5-91.683,9.96-135.327,3.404
		c-124.997-18.779-426.666-109.2-459.077-190.688c-22.092-55.543,27.807-98.392-11.491-159.014
		c-38.581-59.515-132.104-103.703-202.104-133.703c-111.997-47.999-116.296-160.162,62-176
		c285.723-25.381,314.418,96.224,445.126,192.689c81.882,60.431,163.198,101.493,243.898,161.236
		c97.251,71.998,183.762,229.017,130.312,271.137C1845.498,2045.415,1824.337,2055.265,1789.087,2063.015z"/>
	<path fill-rule="evenodd" clip-rule="evenodd" fill="#544022" d="M1878.77,1990.629c0.229,17.839-4.785,32.325-16.346,41.436
		c-16.926,13.338-38.087,23.188-73.337,30.938c-58.75,10.5-91.683,9.96-135.327,3.404
		c-124.997-18.779-426.666-109.2-459.077-190.688c-4.478-11.259-5.998-21.996-5.903-32.465l0.006,26.36
		c0.143,9.722,1.754,19.69,5.896,30.104c32.412,81.487,334.08,171.908,459.077,190.688c43.645,6.556,77.327,7.596,135.327-3.404
		c34-7.333,56.411-17.6,73.337-30.938c11.615-9.154,16.621-23.734,16.343-41.689L1878.77,1990.629z"/>
	<path fill-rule="evenodd" clip-rule="evenodd" fill="#544022" d="M1198.134,1780.382c2.084-19.755,0.142-40.407-14.943-63.677
		c-38.581-59.515-132.104-103.703-202.104-133.703c-50.404-21.602-78.995-56.199-78.944-89.164v24.039
		c-0.027,32.953,28.561,67.532,78.944,89.125c70,30,163.523,74.188,202.104,133.703c9.049,13.96,13.369,26.977,14.927,39.423
		L1198.134,1780.382z"/>
	<g>
		
			<path fill="none" stroke="#FFFFFF" stroke-width="5" stroke-linecap="round" stroke-miterlimit="10" stroke-dasharray="12.019,12.019" d="
			M1710.431,2054.736c-16.822,0-33.104-1.367-54.442-4.572c-55.977-8.409-161.619-34.235-261.288-71.064
			c-65.811-24.318-115.707-48.273-148.301-71.201c-25.491-17.93-34.614-31.177-37.779-39.133c-8.2-20.617-4.466-39.277-0.142-60.886
			c5.816-29.067,12.408-62.011-12.701-100.743c-39.433-60.83-127.669-104.568-208.782-139.331
			c-21.102-9.043-38.842-20.973-51.304-34.499c-14.263-15.48-20.5-31.82-18.04-47.251c2.54-15.926,15.715-32.244,36.148-44.771
			c23.076-14.146,55.609-21.367,92.822-24.673c25.011-2.222,48.802-3.348,70.711-3.348c72.084,0,117.264,8.646,171,36.333
			c40.653,20.946,72.694,50.398,109.667,86c24.815,23.895,49.738,48.436,81.667,72c41.368,30.53,84.091,56.968,124.333,82
			c56.988,35.45,95.43,61.317,120.666,80c35.455,26.248,71.136,63.988,97.859,106.197c35.194,55.588,47.641,96.651,38.053,125.536
			c-7.798,23.491-27.664,31.092-35.144,33.952c-0.595,0.228-1.111,0.419-1.526,0.598c-13.777,5.904-18.213,7.055-46.664,13.357
			l-0.307,0.068l-0.31,0.055c-30.205,5.375-44.43,5.375-64.118,5.375H1710.431z"/>
	</g>
</g>
<line fill-rule="evenodd" clip-rule="evenodd" fill="none" stroke="#1C1A00" stroke-width="5" stroke-linecap="round" stroke-miterlimit="10" x1="1544.924" y1="2026.236" x2="1544.908" y2="1480.153"/>
<line fill-rule="evenodd" clip-rule="evenodd" fill="none" stroke="#041800" stroke-width="5" stroke-linecap="round" stroke-miterlimit="10" x1="1557.829" y1="1737.333" x2="1557.823" y2="2030.001"/>
<path fill-rule="evenodd" clip-rule="evenodd" fill="#231F20" d="M1533.079,1957.501l3.574-114.167c0-1.975-1.6-3.574-3.574-3.574
	s-3.574,1.6-3.574,3.574L1533.079,1957.501z M1530.791,1843.279c0-1.264,1.024-2.288,2.288-2.288s2.288,1.024,2.288,2.288v4.576
	c0,1.264-1.024,2.288-2.288,2.288s-2.288-1.024-2.288-2.288V1843.279z"/>
<line fill-rule="evenodd" clip-rule="evenodd" fill="none" stroke="#041800" stroke-width="5" stroke-linecap="round" stroke-miterlimit="10" x1="1533.079" y1="1845.864" x2="1533.084" y2="1750.167"/>
<g>
	<linearGradient id="SVGID_2_" gradientUnits="userSpaceOnUse" x1="1239.9209" y1="1027.6255" x2="1542.7178" y2="1859.5536">
		<stop  offset="0.0401" style="stop-color:#76A6BC;stop-opacity:0.99"/>
		<stop  offset="0.4028" style="stop-color:#96B9DA;stop-opacity:0.99"/>
		<stop  offset="1" style="stop-color:#83A3C0;stop-opacity:0.99"/>
	</linearGradient>
	<path fill-rule="evenodd" clip-rule="evenodd" fill="url(#SVGID_2_)" d="M1789.087,1767.1c-58.75,10.5-91.683,9.961-135.327,3.404
		c-124.997-18.778-426.666-109.2-459.077-190.688c-22.092-55.543,27.807-98.392-11.491-159.014
		c-38.581-59.515-132.104-103.703-202.104-133.703c-111.997-47.999-116.296-160.162,62-176
		c285.723-25.381,314.418,96.224,445.126,192.689c81.882,60.431,163.198,101.492,243.898,161.237
		c97.251,71.997,183.762,229.016,130.312,271.136C1845.498,1749.501,1824.337,1759.35,1789.087,1767.1z"/>
	<path fill-rule="evenodd" clip-rule="evenodd" fill="#58595B" d="M1878.77,1694.714c0.229,17.839-4.785,32.325-16.346,41.436
		c-16.926,13.339-38.087,23.188-73.337,30.938c-58.75,10.5-91.683,9.961-135.327,3.404
		c-124.997-18.778-426.666-109.2-459.077-190.688c-4.478-11.258-5.998-21.994-5.903-32.464l0.006,26.359
		c0.143,9.724,1.754,19.691,5.896,30.104c32.412,81.488,334.08,171.91,459.077,190.688c43.645,6.557,77.327,7.596,135.327-3.404
		c34-7.334,56.411-17.599,73.337-30.938c11.615-9.153,16.621-23.734,16.343-41.689L1878.77,1694.714z"/>
	<path fill-rule="evenodd" clip-rule="evenodd" fill="#58595B" d="M1198.134,1484.467c2.084-19.756,0.142-40.406-14.943-63.677
		c-38.581-59.515-132.104-103.703-202.104-133.703c-50.404-21.602-78.995-56.199-78.944-89.164v24.039
		c-0.027,32.953,28.561,67.532,78.944,89.125c70,30,163.523,74.188,202.104,133.703c9.049,13.96,13.369,26.977,14.927,39.423
		L1198.134,1484.467z"/>
	<g>
		
			<path fill="none" stroke="#FFFFFF" stroke-width="5" stroke-linecap="round" stroke-miterlimit="10" stroke-dasharray="12.019,12.019" d="
			M1710.431,1759.54c-16.822,0-33.104-1.367-54.442-4.572c-55.977-8.409-161.619-34.235-261.288-71.064
			c-65.811-24.318-115.707-48.274-148.301-71.201c-25.491-17.93-34.614-31.177-37.779-39.132c-8.2-20.618-4.466-39.279-0.142-60.887
			c5.816-29.067,12.408-62.011-12.701-100.742c-39.433-60.831-127.669-104.569-208.782-139.332
			c-21.102-9.043-38.842-20.973-51.304-34.5c-14.263-15.48-20.5-31.819-18.04-47.251c2.54-15.925,15.715-32.243,36.148-44.77
			c23.076-14.146,55.609-21.367,92.822-24.672c25.011-2.222,48.802-3.349,70.711-3.349c72.084,0,117.264,8.646,171,36.333
			c40.653,20.946,72.694,50.398,109.667,86c24.815,23.895,49.738,48.436,81.667,72c41.368,30.53,84.091,56.968,124.333,82
			c56.988,35.45,95.43,61.317,120.666,80c35.455,26.248,71.136,63.988,97.859,106.198c35.194,55.587,47.641,96.65,38.053,125.535
			c-7.798,23.491-27.664,31.092-35.144,33.952c-0.595,0.228-1.111,0.419-1.526,0.598c-13.777,5.904-18.213,7.055-46.664,13.357
			l-0.307,0.068l-0.31,0.055c-30.205,5.375-44.43,5.375-64.118,5.375H1710.431z"/>
	</g>
</g>
<g>
	<path fill-rule="evenodd" clip-rule="evenodd" fill="#97999C" d="M1732.111,1168.565c-80.7-59.744-162.017-100.806-243.898-161.237
		c-130.708-96.466-159.403-218.07-445.126-192.689c-178.296,15.838-173.997,128.001-62,176c70,30,163.523,74.188,202.104,133.703
		c39.298,60.622-10.601,103.471,11.491,159.013c32.412,81.488,334.08,171.909,459.077,190.688
		c43.645,6.556,76.577,7.096,135.327-3.404c35.25-7.75,56.411-17.6,73.337-30.938
		C1915.873,1397.582,1829.362,1240.563,1732.111,1168.565z M1818,1434.103c-12.374,5.303-15.906,6.276-44,12.5
		c-29.411,5.234-42.664,5.144-63.569,5.144c-16.038,0-31.653-1.318-52.215-4.406c-55.241-8.3-159.64-33.839-258.316-70.302
		c-152.692-56.423-174.517-94.705-177.341-101.807c-6.558-16.488-3.387-32.336,0.628-52.4
		c6.062-30.292,13.605-67.992-14.823-111.844c-41.621-64.205-132.273-109.307-215.46-144.959
		c-39.075-16.747-63.929-43.723-60.44-65.601c3.2-20.065,36.328-51.896,114.818-58.868c24.572-2.183,47.916-3.29,69.384-3.29
		c69.102,0,114.333,9.834,165.73,36.316c40.453,20.843,72.82,51.349,105.604,82.917c25.161,24.228,51.177,49.279,83.897,73.428
		c41.847,30.884,83.715,56.928,124.206,82.115c41.259,25.665,80.23,49.907,119.657,79.095
		c33.512,24.81,68.001,62.479,94.092,103.688C1886,1416.103,1828.5,1429.603,1818,1434.103z"/>
	<path fill-rule="evenodd" clip-rule="evenodd" fill="#97999C" d="M1387.812,775.297"/>
	<path fill-rule="evenodd" clip-rule="evenodd" fill="none" d="M1660.827,1103.812c-17.519-0.781-37.015,0.948-57.118,5.526
		c-23.005,5.239-43.678,13.499-60.388,23.428c-12.304,6.281-16.821,2.469-21.321-1.448
		c-128.704-118.495-180.633-300.574-193.113-349.446l-1.586-6.469c-0.204-1.091-0.31-2.222-0.31-3.379
		c0-9.165,6.706-16.616,15.042-16.796l0.926-0.059c1.409-0.081,2.825-0.165,4.25-0.255c44.103-2.78,72.356-13.68,87.473-28.887
		l0.425-0.309c0.979-1.108,2.131-1.893,3.421-2.255c4.745-1.332,9.727,3.502,11.792,11.059l1.626,5.328
		c45.376,132.534,74.746,236.929,210.055,356.801C1667.876,1100.942,1668.625,1104.485,1660.827,1103.812z"/>
	<path fill-rule="evenodd" clip-rule="evenodd" fill="#B2B0B0" d="M1801.275,1203.325
		c-236.275-184.34-273.24-258.169-355.538-506.836l-0.007-0.002c6.484,19.716-0.493,38.356-24.837,50.894l-0.001,0.012
		c-6.993,3.575-11.334,12.105-10.292,21.771c0.172,1.595,0.482,3.144,0.915,4.629l0.295,1.13
		c11.95,42.649,46.738,194.896,182.047,314.768l0.285,0.26c1.763,1.537,3.92,2.8,6.304,3.583c2.254,0.741,4.424,0.958,6.336,0.722
		l0.379-0.05c18.01-2.395,34.918-1.159,48.624,3.032l-0.958-0.092c-17.519-0.781-37.015,0.948-57.118,5.525
		c-23.005,5.239-43.678,13.499-60.388,23.429l-0.106-0.293c9.289-9.522,22.708-17.936,38.75-23.884l0.354-0.13
		c3.795-1.4,5.742-5.421,4.453-9.942c-0.687-2.41-2.177-4.553-4.088-6.153l-0.239-0.176
		c-128.703-118.494-162.524-265.402-174.312-307.586l-0.408-1.651c-2.861-9.446-11.636-16.322-22.016-16.322
		c-0.74,0-1.468,0.047-2.19,0.116c-7.64,1.143-15.947,1.995-24.964,2.514c-107.175,6.174-164.348-14.477-207.201-47.833
		c-51.694-40.238-58.021-52.69-125.548-92.973c-38.978-23.252-54.215-56.956-35.713-81.962l-0.028-0.01
		c-53.888,69.936-87.824,171.779-87.824,285.165c0,28.953,2.222,57.148,6.416,84.256c4.046,30.539,31.97,61.493,78.431,81.404
		c70,30,163.523,74.188,202.104,133.703c39.298,60.622-10.601,103.471,11.491,159.013c32.412,81.488,334.08,171.909,459.077,190.688
		c43.645,6.556,76.577,7.096,135.327-3.404c35.25-7.75,56.411-17.6,73.337-30.938c3.256-2.565,5.982-5.564,8.229-8.937
		c5.02-5.084,9.357-10.749,12.911-17.012C1913.099,1361.705,1884,1265.985,1801.275,1203.325z M1452.643,810.769
		c-4.027,0.236-8.14-4.08-9.185-9.641s1.374-10.26,5.402-10.496c4.028-0.237,8.141,4.079,9.185,9.641
		C1459.09,805.833,1456.671,810.532,1452.643,810.769z M1484.962,895.561c-3.938,0.812-8.868-2.833-11.009-8.142
		s-0.683-10.268,3.255-11.08c3.939-0.812,8.869,2.833,11.009,8.142C1490.358,889.789,1488.901,894.75,1484.962,895.561z
		 M1525.272,969.679c-3.937,0.75-9.05-2.938-11.419-8.238c-2.369-5.3-1.097-10.204,2.841-10.954s9.051,2.938,11.419,8.238
		C1530.482,964.025,1529.21,968.929,1525.272,969.679z M1575.686,1035.521c-3.704,1.494-9.664-1.057-13.31-5.698
		c-3.646-4.641-3.596-9.615,0.108-11.11c3.706-1.495,9.665,1.057,13.31,5.698S1579.392,1034.026,1575.686,1035.521z M1374.5,832.985
		c-5.799,0-10.5-4.701-10.5-10.5s4.701-10.5,10.5-10.5s10.5,4.701,10.5,10.5S1380.299,832.985,1374.5,832.985z M1407.674,917.318
		c-5.799,0-10.876-4.701-11.34-10.5c-0.464-5.799,3.86-10.5,9.66-10.5c5.799,0,10.876,4.701,11.34,10.5
		C1417.797,912.617,1413.473,917.318,1407.674,917.318z M1444.174,992.318c-5.799,0-10.876-4.701-11.34-10.5
		c-0.464-5.799,3.86-10.5,9.66-10.5c5.799,0,10.876,4.701,11.34,10.5C1454.297,987.617,1449.973,992.318,1444.174,992.318z
		 M1489.127,1060.86c-5.866,0.014-11.276-4.621-12.083-10.352c-0.807-5.73,3.295-10.387,9.162-10.4
		c5.866-0.013,11.276,4.621,12.082,10.352C1499.095,1056.191,1494.994,1060.847,1489.127,1060.86z"/>
	<g>
		<path fill-rule="evenodd" clip-rule="evenodd" fill="#B83726" d="M904.411,917.793c0.004,0.015,0.007,0.029,0.011,0.044
			C904.418,917.823,904.415,917.808,904.411,917.793z"/>
		<path fill-rule="evenodd" clip-rule="evenodd" fill="#B83726" d="M903.68,914.901c0.014,0.062,0.03,0.125,0.044,0.187
			C903.71,915.026,903.694,914.964,903.68,914.901z"/>
		<path fill-rule="evenodd" clip-rule="evenodd" fill="#B83726" d="M926.172,954.133c-0.127-0.133-0.254-0.267-0.38-0.401
			C925.918,953.866,926.045,954,926.172,954.133z"/>
		<path fill-rule="evenodd" clip-rule="evenodd" fill="#B83726" d="M921.327,948.708c-0.043-0.052-0.088-0.104-0.131-0.156
			C921.238,948.604,921.283,948.656,921.327,948.708z"/>
		<path fill-rule="evenodd" clip-rule="evenodd" fill="#B83726" d="M903.078,911.926c0.019,0.107,0.039,0.215,0.058,0.323
			C903.116,912.141,903.097,912.033,903.078,911.926z"/>
		<path fill-rule="evenodd" clip-rule="evenodd" fill="#B83726" d="M923.614,951.359c-0.079-0.088-0.155-0.177-0.233-0.265
			C923.459,951.182,923.535,951.271,923.614,951.359z"/>
		<path fill-rule="evenodd" clip-rule="evenodd" fill="#B83726" d="M907.385,926.307c0.015,0.035,0.028,0.069,0.043,0.104
			C907.414,926.376,907.4,926.342,907.385,926.307z"/>
		<path fill-rule="evenodd" clip-rule="evenodd" fill="#B83726" d="M905.229,920.511c0.036,0.11,0.071,0.221,0.108,0.332
			C905.301,920.732,905.266,920.621,905.229,920.511z"/>
		<path fill-rule="evenodd" clip-rule="evenodd" fill="#B83726" d="M918.91,945.703c0.1,0.129,0.201,0.258,0.302,0.387
			C919.111,945.961,919.01,945.832,918.91,945.703z"/>
		<path fill-rule="evenodd" clip-rule="evenodd" fill="#B83726" d="M915.044,940.36c0.038,0.057,0.077,0.112,0.114,0.168
			C915.121,940.473,915.082,940.417,915.044,940.36z"/>
		<path fill-rule="evenodd" clip-rule="evenodd" fill="#B83726" d="M916.894,943.01c0.053,0.073,0.104,0.146,0.157,0.219
			C916.998,943.157,916.946,943.083,916.894,943.01z"/>
		<path fill-rule="evenodd" clip-rule="evenodd" fill="#B83726" d="M908.603,929.037c0.055,0.117,0.109,0.233,0.165,0.35
			C908.712,929.271,908.658,929.154,908.603,929.037z"/>
		<path fill-rule="evenodd" clip-rule="evenodd" fill="#B83726" d="M910.059,931.987c0.028,0.055,0.059,0.11,0.087,0.165
			C910.118,932.097,910.087,932.042,910.059,931.987z"/>
		<path fill-rule="evenodd" clip-rule="evenodd" fill="#B83726" d="M913.171,937.452c0.077,0.124,0.154,0.248,0.231,0.372
			C913.325,937.7,913.248,937.576,913.171,937.452z"/>
		<path fill-rule="evenodd" clip-rule="evenodd" fill="#B83726" d="M911.555,934.731c0.031,0.054,0.061,0.108,0.091,0.163
			C911.615,934.84,911.586,934.785,911.555,934.731z"/>
		<path fill-rule="evenodd" clip-rule="evenodd" fill="#B83726" d="M906.261,923.481c0.022,0.058,0.045,0.117,0.067,0.175
			C906.307,923.598,906.283,923.539,906.261,923.481z"/>
		<path fill-rule="evenodd" clip-rule="evenodd" fill="#B83726" d="M972.864,986.905c-0.229-0.109-0.456-0.221-0.683-0.331
			C972.409,986.685,972.636,986.796,972.864,986.905z"/>
		<path fill-rule="evenodd" clip-rule="evenodd" fill="#B83726" d="M964.941,982.885c-0.225-0.121-0.451-0.241-0.675-0.362
			C964.49,982.645,964.716,982.765,964.941,982.885z"/>
		<path fill-rule="evenodd" clip-rule="evenodd" fill="#B83726" d="M968.592,984.796c-0.033-0.017-0.067-0.033-0.1-0.05
			C968.525,984.763,968.559,984.779,968.592,984.796z"/>
		<path fill-rule="evenodd" clip-rule="evenodd" fill="#B83726" d="M960.918,980.669c-0.203-0.115-0.403-0.231-0.605-0.347
			C960.515,980.438,960.715,980.554,960.918,980.669z"/>
		<path fill-rule="evenodd" clip-rule="evenodd" fill="#B83726" d="M1862.424,1439.702c0.818-0.646,1.604-1.319,2.356-2.018
			C1864.026,1438.383,1863.242,1439.057,1862.424,1439.702z"/>
		<path fill-rule="evenodd" clip-rule="evenodd" fill="#B83726" d="M1866.922,1435.53c-0.075,0.081-0.159,0.155-0.234,0.237
			C1866.763,1435.686,1866.848,1435.611,1866.922,1435.53z"/>
		<path fill-rule="evenodd" clip-rule="evenodd" fill="#B83726" d="M977.218,988.931c-0.24-0.108-0.481-0.216-0.72-0.326
			C976.737,988.715,976.978,988.823,977.218,988.931z"/>
		<path fill-rule="evenodd" clip-rule="evenodd" fill="#B83726" d="M957.058,978.417c-0.049-0.029-0.099-0.058-0.148-0.087
			C956.959,978.359,957.009,978.388,957.058,978.417z"/>
		<path fill-rule="evenodd" clip-rule="evenodd" fill="#B83726" d="M949.993,973.939c-0.174-0.116-0.346-0.233-0.519-0.351
			C949.647,973.706,949.818,973.823,949.993,973.939z"/>
		<path fill-rule="evenodd" clip-rule="evenodd" fill="#B83726" d="M934.252,961.891c-0.153-0.135-0.306-0.269-0.458-0.404
			C933.946,961.622,934.099,961.756,934.252,961.891z"/>
		<path fill-rule="evenodd" clip-rule="evenodd" fill="#B83726" d="M937.05,964.29c-0.057-0.048-0.115-0.094-0.172-0.142
			C936.935,964.196,936.994,964.242,937.05,964.29z"/>
		<path fill-rule="evenodd" clip-rule="evenodd" fill="#B83726" d="M953.665,976.324c-0.203-0.128-0.407-0.256-0.609-0.385
			C953.258,976.067,953.462,976.195,953.665,976.324z"/>
		<path fill-rule="evenodd" clip-rule="evenodd" fill="#B83726" d="M940.114,966.773c-0.142-0.112-0.281-0.225-0.422-0.336
			C939.833,966.548,939.972,966.661,940.114,966.773z"/>
		<path fill-rule="evenodd" clip-rule="evenodd" fill="#B83726" d="M931.313,959.228c-0.111-0.104-0.219-0.208-0.33-0.312
			C931.094,959.02,931.202,959.125,931.313,959.228z"/>
		<path fill-rule="evenodd" clip-rule="evenodd" fill="#B83726" d="M928.48,956.498c0.052,0.052,0.106,0.104,0.158,0.155
			C928.586,956.602,928.532,956.55,928.48,956.498z"/>
		<path fill-rule="evenodd" clip-rule="evenodd" fill="#B83726" d="M946.534,971.563c-0.056-0.04-0.114-0.079-0.17-0.119
			C946.42,971.484,946.478,971.523,946.534,971.563z"/>
		<path fill-rule="evenodd" clip-rule="evenodd" fill="#B83726" d="M943.429,969.309c-0.181-0.134-0.362-0.269-0.541-0.404
			C943.067,969.04,943.249,969.175,943.429,969.309z"/>
	</g>
	<path fill-rule="evenodd" clip-rule="evenodd" fill="#A19F9E" d="M1801.275,1203.325
		c-236.275-184.34-273.24-258.169-355.538-506.836l-0.007-0.002c-6.3-19.156-25.3-39.327-53.43-55.899
		c-20.636-12.158-34.784-23.417-47.8-34.186c-55-45.5-107.552-109.02-271.233-99.591c-47.822,2.754-76.462,15.831-89.175,33.013
		c0,0,0,0,0,0l-0.028-0.01c-53.888,69.936-87.824,171.779-87.824,285.165c0,28.953,2.222,57.148,6.416,84.256
		c4.046,30.539,31.97,61.493,78.431,81.404c70,30,163.523,74.188,202.104,133.703c39.298,60.622-10.601,103.471,11.491,159.013
		c32.412,81.488,334.08,171.909,459.077,190.688c43.645,6.556,76.577,7.096,135.327-3.404c35.25-7.75,56.411-17.6,73.337-30.938
		c3.256-2.565,5.982-5.564,8.229-8.937c5.02-5.084,9.357-10.749,12.911-17.012C1913.099,1361.705,1884,1265.985,1801.275,1203.325z
		 M1448.008,709.11c0.003,0.131,0.002,0.262,0.002,0.393c0,0.106,0.001,0.213,0.001,0.319c0,0,0,0.002,0,0.002
		c0-0.107-0.001-0.214-0.001-0.322c0-0.13,0.001-0.26-0.002-0.39C1448.008,709.112,1448.008,709.111,1448.008,709.11z
		 M1447.786,705.817c0,0.001,0,0.002,0,0.003c-0.01-0.093-0.024-0.187-0.035-0.279
		C1447.763,705.633,1447.776,705.726,1447.786,705.817z M1447.718,714.658c-0.009,0.069-0.016,0.138-0.025,0.206
		c0,0.001,0,0.001,0,0.003C1447.701,714.797,1447.708,714.728,1447.718,714.658z M1447.515,716.047v0.001
		c-0.044,0.257-0.096,0.512-0.146,0.768l0,0.002C1447.418,716.562,1447.471,716.305,1447.515,716.047z M1447.191,701.976
		c0.011,0.057,0.021,0.113,0.031,0.168c-0.012-0.058-0.02-0.115-0.032-0.173C1447.19,701.974,1447.19,701.975,1447.191,701.976z
		 M1446.9,700.674c0.001,0.006,0.002,0.012,0.004,0.018c-0.032-0.14-0.066-0.28-0.1-0.42
		C1446.836,700.406,1446.869,700.54,1446.9,700.674z M1446.288,698.32c0.027,0.092,0.055,0.184,0.081,0.276
		c0.001,0.003,0.002,0.007,0.003,0.01C1446.345,698.511,1446.316,698.415,1446.288,698.32c-0.05-0.171-0.1-0.341-0.151-0.512
		c0,0,0-0.002,0-0.002C1446.188,697.977,1446.238,698.148,1446.288,698.32z M1446.241,721.122c-0.053,0.164-0.105,0.328-0.162,0.49
		c-0.001,0.003-0.002,0.005-0.003,0.008C1446.134,721.455,1446.186,721.288,1446.241,721.122z M1445.67,722.722
		c0,0.001,0,0.001-0.001,0.003c-0.102,0.262-0.211,0.522-0.319,0.783C1445.459,723.247,1445.568,722.985,1445.67,722.722z
		 M1444.881,724.607c0,0.001-0.001,0.002-0.001,0.003c-0.041,0.09-0.086,0.179-0.13,0.268
		C1444.792,724.788,1444.839,724.698,1444.881,724.607z M1443.068,728.056c0.154-0.259,0.299-0.521,0.446-0.781
		c0.001-0.002,0.002-0.004,0.003-0.005C1443.369,727.532,1443.223,727.795,1443.068,728.056L1443.068,728.056z M1442.193,729.446
		c-0.092,0.14-0.182,0.28-0.276,0.419c0,0.001-0.001,0.001-0.001,0.002C1442.01,729.728,1442.102,729.586,1442.193,729.446z
		 M1440.726,731.537c-0.032,0.042-0.064,0.085-0.096,0.128c0,0,0,0.001,0,0.001C1440.661,731.623,1440.693,731.58,1440.726,731.537z
		 M1439.285,733.349L1439.285,733.349c-0.125,0.148-0.251,0.298-0.379,0.446C1439.032,733.646,1439.16,733.498,1439.285,733.349z
		 M1437.766,735.065c-0.001,0.001-0.003,0.003-0.004,0.005c-0.14,0.149-0.284,0.297-0.426,0.446
		C1437.479,735.366,1437.625,735.216,1437.766,735.065z M1435.284,737.532c0.154-0.143,0.305-0.286,0.458-0.429
		C1435.59,737.246,1435.438,737.39,1435.284,737.532L1435.284,737.532z M1433.038,739.496c0.225-0.188,0.451-0.377,0.673-0.567
		l0.001,0C1433.489,739.118,1433.263,739.307,1433.038,739.496c-0.121,0.102-0.238,0.204-0.361,0.305c0,0-0.001,0.001-0.002,0.001
		C1432.799,739.701,1432.916,739.598,1433.038,739.496z M1431.645,740.609c-0.004,0.003-0.008,0.006-0.012,0.01
		c-0.213,0.165-0.43,0.327-0.646,0.49C1431.207,740.942,1431.428,740.776,1431.645,740.609z M1427.322,743.674
		c-0.001,0.001-0.003,0.002-0.004,0.003c-0.646,0.417-1.31,0.828-1.987,1.234C1426.01,744.504,1426.676,744.092,1427.322,743.674z
		 M1424.032,745.665c-0.003,0.002-0.007,0.004-0.01,0.006c-0.276,0.158-0.558,0.314-0.837,0.472
		C1423.469,745.984,1423.753,745.825,1424.032,745.665z M1421.426,747.097c0,0-0.001,0.001-0.002,0.001
		c-0.179,0.094-0.349,0.19-0.53,0.283l-0.044,0.01c-0.001,0-0.002,0-0.003,0.001
		C1421.039,747.293,1421.236,747.196,1421.426,747.097z M1016.472,619.73c0,0-0.001,0-0.001-0.001
		c-0.115-0.073-0.227-0.147-0.34-0.221C1016.245,619.583,1016.356,619.658,1016.472,619.73z M1009.522,615.005
		c-0.184-0.133-0.368-0.265-0.55-0.398l-0.001,0C1009.153,614.74,1009.338,614.872,1009.522,615.005z M1007.045,613.158
		c-0.002-0.001-0.005-0.003-0.008-0.005c-0.225-0.172-0.45-0.345-0.674-0.517C1006.588,612.811,1006.818,612.984,1007.045,613.158z
		 M1003.35,610.221c-0.038-0.03-0.076-0.061-0.112-0.091h0C1003.273,610.16,1003.312,610.19,1003.35,610.221z M1000.342,607.626
		c-0.14-0.128-0.279-0.256-0.421-0.384c-0.001-0.002-0.004-0.004-0.006-0.006C1000.059,607.366,1000.197,607.497,1000.342,607.626z
		 M995.607,603.11c0,0-0.001-0.001-0.002-0.001c-0.104-0.105-0.205-0.211-0.308-0.317
		C995.401,602.898,995.503,603.005,995.607,603.11z M992.513,599.81c0.174,0.195,0.353,0.389,0.53,0.583
		C992.866,600.198,992.686,600.004,992.513,599.81L992.513,599.81z M990.971,598.026c-0.001-0.001-0.002-0.002-0.003-0.004
		c-0.181-0.214-0.369-0.427-0.546-0.642c-0.001-0.001-0.002-0.003-0.003-0.004C990.598,597.594,990.788,597.809,990.971,598.026z
		 M988.452,594.905L988.452,594.905c-0.055-0.072-0.105-0.144-0.159-0.216c-0.004-0.006-0.009-0.012-0.013-0.018
		C988.338,594.749,988.392,594.827,988.452,594.905z M984.808,589.664c-0.127-0.2-0.253-0.401-0.378-0.602
		c0-0.001-0.001-0.002-0.001-0.003C984.553,589.261,984.68,589.463,984.808,589.664z M982.232,542.571
		c0.11-0.175,0.215-0.353,0.328-0.527c0,0,0.001-0.001,0.001-0.001c-0.114,0.176-0.22,0.355-0.332,0.533
		C982.23,542.573,982.231,542.572,982.232,542.571z M981.78,584.362c-0.065-0.125-0.133-0.251-0.195-0.377
		c0,0-0.001-0.002-0.001-0.002C981.647,584.109,981.716,584.235,981.78,584.362z M979.3,578.775
		c-0.057-0.154-0.109-0.308-0.166-0.462c-0.001-0.003-0.002-0.007-0.004-0.01C979.188,578.461,979.24,578.618,979.3,578.775z
		 M978.678,549.685c0.022-0.058,0.046-0.116,0.07-0.174c-0.022,0.059-0.048,0.117-0.07,0.176L978.678,549.685z M977.091,571.102
		c0-0.001,0-0.002-0.001-0.004c-0.047-0.237-0.098-0.474-0.141-0.71c0,0,0-0.001,0-0.002
		C976.992,570.624,977.044,570.863,977.091,571.102z M976.641,557.707c0.032-0.228,0.062-0.457,0.098-0.684l0-0.001
		c-0.036,0.229-0.067,0.46-0.099,0.69C976.641,557.71,976.641,557.708,976.641,557.707z M976.271,562.755
		c0-0.091,0.004-0.182,0.006-0.272c0.003-0.121,0.006-0.243,0.009-0.364v0.001c-0.003,0.121-0.006,0.242-0.009,0.363
		C976.274,562.574,976.271,562.665,976.271,562.755L976.271,562.755z M1818,1434.103c-12.374,5.303-15.906,6.276-44,12.5
		c-29.411,5.234-42.664,5.144-63.569,5.144c-16.038,0-31.653-1.318-52.215-4.406c-55.241-8.3-159.64-33.839-258.316-70.302
		c-152.692-56.423-174.517-94.705-177.341-101.807c-6.558-16.488-3.387-32.336,0.628-52.4
		c6.062-30.292,13.605-67.992-14.823-111.844c-41.621-64.205-132.273-109.307-215.46-144.959
		c-39.075-16.747-63.929-43.723-60.44-65.601c3.2-20.065,36.328-51.896,114.818-58.868c24.572-2.183,47.916-3.29,69.384-3.29
		c69.102,0,114.333,9.834,165.73,36.316c40.453,20.843,72.82,51.349,105.604,82.917c25.161,24.228,51.177,49.279,83.897,73.428
		c41.847,30.884,83.715,56.928,124.206,82.115c41.259,25.665,80.23,49.907,119.657,79.095
		c33.512,24.81,68.001,62.479,94.092,103.688C1886,1416.103,1828.5,1429.603,1818,1434.103z"/>
</g>
<path fill-rule="evenodd" clip-rule="evenodd" fill="none" stroke="#1C1A00" stroke-width="5" stroke-linecap="round" stroke-miterlimit="10" d="
	M1533.072,1727.844l0.005-340.867c0.002-3.233,2.687-5.47,5.994-4.993s5.987,3.485,5.984,6.72l0.016,342.286"/>
<text transform="matrix(1 0 0 1 2066.5059 1735.3262)" font-family="'Gibson-SemiBold'" font-size="40.5365" letter-spacing="4">INSOLE</text>
<text transform="matrix(1 0 0 1 2066.5059 1404.3281)" font-family="'Gibson-SemiBold'" font-size="40.5365" letter-spacing="4">UPPER</text>
<text transform="matrix(1 0 0 1 1021.6768 2350.2891)" font-family="'Gibson-SemiBold'" font-size="71.2608" letter-spacing="7">THE BLAKE STITCH</text>
<text transform="matrix(1 0 0 1 345.6826 1336.3394)"><tspan x="0" y="0" font-family="'Gibson-Light'" font-size="40">The upper is sewn</tspan><tspan x="0" y="52" font-family="'Gibson-Light'" font-size="40">directly through the </tspan><tspan x="0" y="104" font-family="'Gibson-Light'" font-size="40">insole and the sole </tspan><tspan x="0" y="156" font-family="'Gibson-Light'" font-size="40">itself to provide a</tspan><tspan x="0" y="208" font-family="'Gibson-Light'" font-size="40">thinner sole edge</tspan><tspan x="0" y="260" font-family="'Gibson-Light'" font-size="40">for a sleeker look.    </tspan></text>
<text transform="matrix(1 0 0 1 345.6826 1155.333)"><tspan x="0" y="0" font-family="'Gibson-SemiBold'" font-size="40.5365" letter-spacing="4">THROUGH </tspan><tspan x="0" y="39" font-family="'Gibson-SemiBold'" font-size="40.5365" letter-spacing="4">STITCHED</tspan></text>
<text transform="matrix(1 0 0 1 2066.5059 2031.8125)" font-family="'Gibson-SemiBold'" font-size="40.5365" letter-spacing="4">SOLE</text>
<g>
	<g>
		
			<line fill="none" stroke="#1C1A00" stroke-width="3.7499" stroke-miterlimit="10" x1="1919.067" y1="1388.996" x2="2028.264" y2="1388.996"/>
		<g>
			<polygon fill="#1C1A00" points="1931.492,1404.333 1934.051,1401.586 1920.506,1389 1934.051,1376.409 1931.492,1373.663 
				1915,1389 			"/>
		</g>
	</g>
</g>
<g>
	<g>
		
			<line fill="none" stroke="#1C1A00" stroke-width="3.7499" stroke-miterlimit="10" x1="1919.067" y1="1720.979" x2="2028.264" y2="1720.979"/>
		<g>
			<polygon fill="#1C1A00" points="1931.492,1736.316 1934.051,1733.568 1920.506,1720.982 1934.051,1708.394 1931.492,1705.646 
				1915,1720.982 			"/>
		</g>
	</g>
</g>
<g>
	<g>
		
			<line fill="none" stroke="#1C1A00" stroke-width="3.7499" stroke-miterlimit="10" x1="1919.067" y1="2018.494" x2="2028.264" y2="2018.494"/>
		<g>
			<polygon fill="#1C1A00" points="1931.492,2033.831 1934.051,2031.084 1920.506,2018.498 1934.051,2005.908 1931.492,2003.161 
				1915,2018.498 			"/>
		</g>
	</g>
</g>
<path fill-rule="evenodd" clip-rule="evenodd" fill="#231F20" d="M643.424,1253.598l-288.703-9.039
	c-4.992,0-9.038,4.046-9.038,9.039s4.046,9.038,9.038,9.038L643.424,1253.598z M354.584,1259.384c-3.195,0-5.786-2.591-5.786-5.786
	s2.591-5.786,5.786-5.786h11.572c3.195,0,5.786,2.591,5.786,5.786s-2.591,5.786-5.786,5.786H354.584z"/>
<path fill="none" stroke="#ED1C24" stroke-width="3" stroke-miterlimit="10" d="M812.887,890.486
	c-35.995,0-48.053,11.279-53.992,19.763c-8.786,12.551-12.534,32.183-12.534,65.644v208.435c0,46.3-22.669,59.064-40.91,61.835
	v4.506v0.333v4.177c18.241,2.771,40.91,15.535,40.91,61.835v212.935c0,33.462,3.749,53.094,12.534,65.645
	c5.938,8.483,17.997,19.763,53.992,19.763"/>
<path fill-rule="evenodd" clip-rule="evenodd" fill="none" stroke="#1C1A00" stroke-width="5" stroke-linecap="round" stroke-miterlimit="10" d="
	M1557.834,1736.643l0.005-97.004c0-23.875,8.5-50.875,50.167-41.875c41.667,9,58.333-8.667,58.333-8.667"/>
</svg>
