<svg version="1.1" xmlns="http://www.w3.org/2000/svg" xmlns:xlink="http://www.w3.org/1999/xlink" x="0px" y="0px" width="779px"
	 height="438px" viewBox="0 0 779 438" enable-background="new 0 0 779 438" xml:space="preserve">
<g id="Derby">
	<path id="path_toe" d="M522.036,281.574c0,0,0.723-85.128-9.377-94.507c0,0-7.215,0.722,28.136,5.771c35.349,5.05,121.199,1.443,114.706,63.486
		C655.501,256.324,654.779,271.474,522.036,281.574z"/>
	<path id="path_foxing" d="M236.351,245.502c0,0,2.166-67.813-72.142-82.964c0,0-30.3-15.871-19.479-44.007l-15.15-7.213
		c0,0-30.3,59.156-16.594,111.821C112.987,223.139,198.115,241.897,236.351,245.502z"/>
	<path id="path_eyestay" d="M236.351,245.502c0,0,79.358,16.594,107.494,27.415c0,0,102.14,16.742,178.191,8.657c0,0,0.723-85.851-9.377-94.507
		c0,0-41.121-18.036-69.258-41.842c-28.136-23.807-96.671-60.6-116.15-59.878c0,0-41.122,50.5-86.571,54.828
		c-45.45,4.329-95.949-21.643-95.949-21.643s-14.625,40.169,39.58,50.024C184.31,168.556,230.58,182.739,236.351,245.502z"/>
</g>
</svg>
