<svg version="1.1" xmlns="http://www.w3.org/2000/svg" xmlns:xlink="http://www.w3.org/1999/xlink" x="0px" y="0px"
	 width="779px" height="438px" viewBox="0 0 779 438" enable-background="new 0 0 779 438" xml:space="preserve">
<g id="Monkstrap">
	<path id="path_toe" d="M469.121,231.706c0,0-83.387-90.577-186.902,28.034c0,0-3.145,34.416,7.099,41.155s46.615,19.409,100.944,10.513
		c0,0,66.461-9.165,68.076-9.435c1.619-0.27,23.992-7.817,21.027-28.035C476.399,253.721,469.121,231.706,469.121,231.706z"/>
	<path id="path_eyestay" d="M469.121,231.706c0,0-7.815-23.813-10.513-44.839c-2.695-21.027-14.287-44.48-18.87-52.837
		c-4.582-8.356-10.534-35.313-49.477-42.053c0,0-31.934,1.887-44.873,29.922c-12.94,28.035,0,1.348,0,1.348s-0.989-5.392-5.75-1.617
		c-4.763,3.774-15.815,38.818-15.815,38.818s1.887,7.817,5.391,2.695c3.505-5.122,2.427,3.504,2.427,3.504l-1.887,2.427
		c0,0-24.801,14.827-24.531,36.392l-0.002,5.122l-5.658,8.577l4.043,2.476l-21.386,38.1
		C282.219,259.74,375.67,143.465,469.121,231.706z"/>
</g>		
</svg>