<svg version="1.1" xmlns="http://www.w3.org/2000/svg" xmlns:xlink="http://www.w3.org/1999/xlink" x="0px" y="0px" width="779px"
	 height="438px" viewBox="0 0 779 438" enable-background="new 0 0 779 438" xml:space="preserve">
<g id="Oxford">
	<path id="path_vamp" d="M638.521,110.801c-12.233,7.591-35.304,18.337-61.934,22.796c0,0-39.773,12.151-82.571-4.462l-7.131-2.852
		c0,0-130.879,66.814-148.938,71.51c0,0-30.97,6.772-43.521-24.342l-33.414,15.869c0,0-3.228,78.819,2.912,87.125h86.618
		c0,0,95.11-11.011,108.112-19.407c0,0,46.059-9.817,66.06-9.944l32.596-4.734c0,0-3.521-57.424,45.777-72.593
		c0,0,37.109-14.085,37.381-21.128c0,0,8.396-5.688,0-32.505L638.521,110.801z"/>
	<path id="path_foxing" d="M670.49,224.791c0,0,14.445-62.843-18.059-102.933c0,0-1.626-4.424-2.709-10.203c0,0-1.176-3.174-4.695-3.069l-6.507,2.214
		c0,0,14.17,28.5,0,41.024c0,0-16.615,11.679-37.266,18.535c0,0-26.564,7.898-36.812,34.193c0,0-7.811,19.793-7.133,37.806
		C557.311,242.359,669.271,229.531,670.49,224.791z"/>
	<path id="path_eyestay" d="M479.366,122.837c0,0-26.596-13.146-38.758-23.19c0,0-8.126-5.057-32.686,6.32c0,0-27.989,11.195-41.715,21.85
		c-13.724,10.655-46.229,31.061-46.229,31.061s-3.973,2.708-25.527,14.55c0,0,9.99,26.911,36.362,24.985
		c0,0,11.494-0.407,25.922-8.213s130.148-63.917,130.148-63.917L479.366,122.837z"/>
	<path id="path_toe" d="M263.925,276.445c0,0-132.925-2.671-148.184-17.345c0,0-3.504-40.015,42.002-51.754c0,0,29.15-4.372,61.2-7.386
		c0,0,33.184-6.695,41.985-10.596C260.929,189.365,257.615,273.201,263.925,276.445z"/>
</g>
</svg>